[ 
	{
		"webserviceURL":"http://192.168.61.132/tritechrevenueguarddashboard/Controller.aspx",
		"proxyURL":"reportCurl.php",
		"currencyFormat":"dollar"
	},
	{
		"reportid": 0,
		"ServiceType": "",
		"fromdate": "",
		"todate": "",
		"companyid": "",
		"insuranceid": "Not Available",
		"numberofdays": "Not Available",
		"avgormax": "Not Available",
		"CompanyidDisplayName": "Clients",
		"DateDisplayName": "Date Range",		
		"InsuranceidDisplayName": "Not Available",
		"NumberOfDaysDisplayName":"Not Available",
		"AvgormaxDisplayName": "Not Available"
		
	}, {
		"reportid": 1,
		"ServiceType": "getAverageDaysToBill",
		"fromdate": "",
		"todate": "",
		"companyid": "",
		"insuranceid": "Not Available",
		"numberofdays": "Not Available",
		"avgormax": "",
		"CompanyidDisplayName": "Clients",
		"DateDisplayName": "Date Range",		
		"InsuranceidDisplayName": "Not Available",
		"NumberOfDaysDisplayName":"Not Available",
		"AvgormaxDisplayName": "Not Available"
		
	}, {
		"reportid": 2,
		"ServiceType": "getClaimsWaitingToBeBilled",
		"fromdate": "",
		"todate": "",
		"companyid": "",
		"insuranceid": "Not Available",
		"numberofdays": "Not Available",
		"avgormax": "",
		"CompanyidDisplayName": "Clients",
		"DateDisplayName": "Date Range",		
		"InsuranceidDisplayName": "Not Available",
		"NumberOfDaysDisplayName":"Not Available",
		"AvgormaxDisplayName": "Not Available"
		
	}, {
		"reportid": 3,
		"ServiceType": "GetDateOfServiceVsDateOfUpload",
		"fromdate": "",
		"todate": "",
		"companyid": "",
		"insuranceid": "Not Available",
		"numberofdays": "Not Available",
		"avgormax": "",
		"CompanyidDisplayName": "Clients",
		"DateDisplayName": "Date Range",		
		"InsuranceidDisplayName": "Not Available",
		"NumberOfDaysDisplayName":"Not Available",
		"AvgormaxDisplayName": "Average-Max"
		
	}, {
		"reportid": 4,
		"ServiceType": "getTotalOutstandingClaims",
		"fromdate": "",
		"todate": "",
		"companyid": "",
		"insuranceid": "",
		"numberofdays": 1,
		"avgormax": "Not Available",
		"CompanyidDisplayName": "Clients",
		"DateDisplayName": "Date Range",		
		"InsuranceidDisplayName": "Payor",
		"NumberOfDaysDisplayName":"Number of Days",
		"AvgormaxDisplayName": "Not Available",
		"Numberofdayspdfvaluename" : "Over 90"
		
	}, {
		"reportid": 5,
		"ServiceType": "getPercentOutstandingClaims",
		"fromdate": "Not Available",
		"todate": "",
		"companyid": "",
		"insuranceid": "",
		"numberofdays": 1,
		"avgormax": "Not Available",
		"CompanyidDisplayName": "Clients",
		"DateDisplayName": "Date Range",		
		"InsuranceidDisplayName": "Payor",
		"NumberOfDaysDisplayName":"Number of Days",
		"AvgormaxDisplayName": "Not Available",
		"Numberofdayspdfvaluename" : "Over 90"
		
	}, {
		"reportid": 6,
		"ServiceType": "getClaimsBilledPerClient",
		"fromdate": "",
		"todate": "",
		"companyid": "",
		"insuranceid": "Not Available",
		"numberofdays": "Not Available",
		"avgormax": "Not Available",
		"CompanyidDisplayName": "Clients",
		"DateDisplayName": "Date Range",		
		"InsuranceidDisplayName": "Not Available",
		"NumberOfDaysDisplayName":"Not Available",
		"AvgormaxDisplayName": "Not Available"
		
	}, {
		"reportid": 7,
		"ServiceType": "getAverageDaysOutstandingTrending",
		"fromdate": "",
		"todate": "",
		"companyid": "",
		"insuranceid": "Not Available",
		"numberofdays": "Not Available",
		"avgormax": "Not Available",
		"CompanyidDisplayName": "Clients",
		"DateDisplayName": "Date Range",		
		"InsuranceidDisplayName": "Not Available",
		"NumberOfDaysDisplayName":"Not Available",
		"AvgormaxDisplayName": "Not Available"
		
	}, {
		"reportid": 8,
		"ServiceType": "getMedicarelastPayment",
		"fromdate": "",
		"todate": "",
		"companyid": "",
		"insuranceid": "Not Available",
		"numberofdays": "Not Available",
		"avgormax": "Not Available",
		"CompanyidDisplayName": "Clients",
		"DateDisplayName": "Date Range",		
		"InsuranceidDisplayName": "Not Available",
		"NumberOfDaysDisplayName":"Not Available",
		"AvgormaxDisplayName": "Not Available"
		
	}, {
		"reportid": 9,
		"ServiceType": "getAverageCashCollectedPerTrip",
		"fromdate": "",
		"todate": "",
		"companyid": "",
		"insuranceid": "Not Available",
		"numberofdays": "Not Available",
		"avgormax": "Not Available",
		"CompanyidDisplayName": "Clients",
		"DateDisplayName": "Date Range",		
		"InsuranceidDisplayName": "Not Available",
		"NumberOfDaysDisplayName":"Not Available",
		"AvgormaxDisplayName": "Not Available"
		
	}, {
		"reportid": 10,
		"ServiceType": "getVolumeMonthlyTrending",
		"fromdate": "",
		"todate": "",
		"companyid": "",
		"insuranceid": "Not Available",
		"numberofdays": "Not Available",
		"avgormax": "Not Available",
		"CompanyidDisplayName": "Clients",
		"DateDisplayName": "Date Range",		
		"InsuranceidDisplayName": "Not Available",
		"NumberOfDaysDisplayName":"Not Available",
		"AvgormaxDisplayName": "Not Available"

	}

]