{
    "scales": {
        "yAxes": [{           
            "type": "linear",
            "display": true,
            "position": "left",
            "scaleLabel": {
                "display": true,
                "labelString": "",
                "fontColor": "#777",
                "fontWeight": "bold",
                "fontSize": "12",
                "fontFamily": "Arial"
            },
            "ticks": {
                "beginAtZero":false,                
                "suggestedMin":0,
                "suggestedMax":5,
                "fontSize":"10"
            },
            "gridLines": {
                "display": true,
                 "drawTicks": false
            }
        }],
        "xAxes": [{
            "display": true,
            "scaleLabel": {
                "display": true,
                "labelString": "",
                "fontColor": "#777",
                "fontWeight": "bold",
                "fontSize": "12",
                 "fontFamily": "Arial"
            },
            "ticks": {                
                "fontSize":"10",
                 "min":0
            },
            "gridLines": {
                "display": false,
                "drawTicks": false
            }
        }]
    },
    "tooltips": {    
        "enabled": true,
        "backgroundColor": "#f3f3f3",
        "titleFontColor": "#777",
        "bodyFontColor": "#777",
        "intersect":true,
        "mode":"single"
    },
    "title": {
        "display": true,
        "text": ""
    },
    "responsive": "",
    "legend": {
        "display": true,
        "position": "bottom",
        "labels": {
            "boxWidth": 10,
            "fontColor": "#777",
            "fontFamily": "Arial",
            "fontSize":10,
            "padding":1
            
        }

    },
     "elements":{"line": {
                "fill": false
        }}
}